{
    "wallpaper": "https://picsum.photos/1280/720/?blur=2",

    "spider":"./custom_spider原画在前0703.jar;md5;705fe42de5307146708bef0757880451",

   
    "lives":[{"name":"live","type":0,"url":"https://agit.ai/Yoursmile7/TVBox/raw/branch/master/live.txt","playerType":1,"ua":"okhttp/3.12.13","epg":"http://epg.112114.xyz/?ch={name}&date={date}","logo":"https://epg.112114.xyz/logo/{name}.png"}],
    
    
    "sites": 
    
    [

        {"key": "js荐片","name": "🍥┃豆瓣JS┃荐片🍥","type": 3,"api": "./lib/drpy2.min.js","searchable": 1,"quickSearch": 1,"filterable": 0,"ext": "./js/jianpian.js"},
        
        {"key":"豆瓣","name":"🖖┃豆瓣JS┃热播🖖","type":3,"api":"./lib/douban2.js","searchable":0,"quickSearch":0,"ext":"./js/douban.js"},
        
        {"key":"py_douban","name":"🍊┃豆瓣py┃备用🍊","type":3,"api":"py_douban","changeable":1,"searchable":1,"ext":"./py/douban.py"},
                 
        {"key": "drpy_js_直播转点播","name": "📺┃电视┃道长","type": 3,"api": "./js/直播转点播2.js","searchable": 0,"quickSearch": 0,"ext": "./js/直播仓.json"},
        
        {"key":"py_cctv","name": "🔥CCTV","type": 3,"api": "py_cctv","searchable": 0,"quickSearch": 0,"filterable": 0,"ext": "./py/py_cctv_new.py"},

        {
        "key": "lf_js_douban",
        "name":"豆瓣┃lf_douban",
        "type":3,
        "searchable": 0,
        "quickSearch": 0,
        "filterable": 1,
        "api": "./lf_douban1_min.js"
        },
    {
        "key": "lf_js_ikanbot",
        "name":"点播┃lf_ikanbot",
        "type":3,
         "searchable": 1,
         "quickSearch": 1,
         "filterable": 1,
        "api": "./lf_ikanbot_min.js"
        },
        {
      "key": "aikanbot",
      "name": "❤️影视爱看机器人",
      "type": 3,
      "api": "https://qu.ax/eTKm.js",
      "searchable": 1,
      "quickSearch": 1
    },
       {
      "key": "MV_vod",
      "name": "┃MV┃视频",
      "type": 1,
      "api": "https://tvbox-mv--leosam2048.repl.co/mv/vod",
      "searchable": 1,
      "quickSearch": 1,
      "filterable": 1
    },
     {
          "key": "傢伙",
          "name": "傢伙",
          "type": 4,
          "api": " https://php.iptv.hz.cz/moguys.php",
          "searchable": 1,
          "changeable": 1
  },
    {
      "key":"MTV转点播",
      "name": "电视 | MTV[js]",
      "type":3,
      "api":"https://agit.ai/lengniuge/js/raw/branch/master/Live.js",
      "ext":"https://agit.ai/lengniuge/mv/raw/branch/master/mv.json"
    },
    {
            "key": "MTV转点播1",
            "name": "MTV转换",
            "type": 3,
            "api": "https://agit.ai/lamdow8/ai/raw/branch/cc/lf_live_min.js",
            "ext": "https://agit.ai/lamdow8/ai/raw/branch/cc/lf_live_min.txt"
        },
        
    { "key":"直播转点播",
      "name":"电视直播",
      "type":3,
      "api":"https://agit.ai/lengniuge/js/raw/branch/master/Live.js",
      "ext":"https://agit.ai/lengniuge/api/raw/branch/master/tv.json"
    },
{
  "key":"直播转点播1",
  "name":"电视直播1",
  "type":3,
  "api":"http://我不是.肥猫.love:63/JS/直播转点播2.js",
  "ext":"http://我不是.肥猫.love:63/lives/直播仓.json"
  },

        {"key":"Gitcafe","name":"📀小纸条(搜索)","type":3,"api":"csp_Gitcafe","playerType":1,"searchable":1,"quickSearch":1,"filterable":1,"ext":"http://127.0.0.1:9978/file/tvbox/tok.txt"},
        {"key":"csp_Zhaozy","name":"📀找资源(搜索)","type":3,"api":"csp_Zhaozy","playerType":1,"searchable":1,"quickSearch":1,"filterable":0,"ext":"http://127.0.0.1:9978/file/tvbox/tok.txt"},
        {"key":"csp_AliPS","name":"📀喵狸盘搜(搜索)","type":3,"api":"csp_AliPS","playerType":1,"searchable":1,"quickSearch":1,"filterable":0,"ext":"http://127.0.0.1:9978/file/tvbox/tok.txt"},
        {"key":"csp_Yisou","name":"📀易搜(搜索)","type":3,"api":"csp_Yisou","playerType":1,"searchable":1,"quickSearch":1,"filterable":0,"ext":"http://127.0.0.1:9978/file/tvbox/tok.txt"},
        {"key":"csp_Upyunso","name":"📀UP云搜(搜索)","type":3,"api":"csp_Upyunso","playerType":1,"searchable":1,"quickSearch":1,"filterable":0,"ext":"http://127.0.0.1:9978/file/tvbox/tok.txt"},
        {"key": "csp_XYQHikerAL_玩偶哥哥","name":"📀玩偶哥哥(优)","type":3,"api":"csp_XYQHikerAL","playerType":1,"searchable":1,"quickSearch":1,"filterable":1,"ext":"./XYQHiker/玩偶哥哥.json"},
        {"key": "csp_XYQHikerAL_云盘资源","name":"📀云盘资源(搜索)","type":3,"api":"csp_XYQHikerAL","playerType":1,"searchable":1,"quickSearch":1,"filterable":1,"ext":"./XYQHiker/云盘资源分享.json"},
        {"key": "csp_XYQHikerAL_我的小站","name":"📀我的小站(搜索)","type":3,"api":"csp_XYQHikerAL","playerType":1,"searchable":1,"quickSearch":1,"filterable":1,"ext":"./XYQHiker/我的小站.json"},
        {"key": "csp_XYQHikerAL_阿里云盘网","name":"📀阿里云盘(搜索)","type":3,"api":"csp_XYQHikerAL","playerType":1,"searchable":1,"quickSearch":1,"filterable":1,"ext":"./XYQHiker/阿里云盘网.json"},
        {"key": "csp_XYQHikerAL_豆豆飞","name":"📀豆豆飞(搜索)","type":3,"api":"csp_XYQHikerAL","playerType":1,"searchable":1,"quickSearch":1,"filterable":1,"ext":"./XYQHiker/豆豆飞.json"},
        {"key": "csp_XYQHiker_土拨鼠搜索","name":"📀土拨鼠(搜索)","type":3,"api":"csp_XYQHiker","playerType":1,"searchable":1,"quickSearch":1,"filterable":1,"ext":"./XYQHiker/土拨鼠搜索.json"},
        {"key": "csp_XYQHiker_DOVX搜索","name":"📀DOVX(搜索)","type":3,"api":"csp_XYQHiker","playerType":1,"searchable":1,"quickSearch":1,"filterable":1,"ext":"./XYQHiker/DOVX搜索.json"},
        {"key": "csp_XYQHiker_盘搜索","name":"📀盘搜索(搜索)","type":3,"api":"csp_XYQHiker","playerType":1,"searchable":1,"quickSearch":1,"filterable":1,"ext":"./XYQHiker/盘搜索.json"},
        {"key": "csp_XYQBiu_云盘分享","name":"📀云盘分享(搜索)","type":3,"api":"csp_XYQBiu","playerType":1,"searchable":1,"quickSearch":1,"filterable":1,"ext":"./XYQBiu/云盘分享.json"},
        {"key":"push_agent","name":"📽推送","type":3,"api":"csp_PushAgent","playerType":1,"searchable":1,"quickSearch":1,"filterable":0,"ext":"http://127.0.0.1:9978/file/tvbox/tok.txt"},
        
        {"key":"腾讯","name":"🐧腾讯(官)","type":3,"api":"./lib/drpy2.min.js","ext":"./js/tengxun.js"},
        {"key":"爱奇异","name":"🥝爱奇艺(官)","type":3,"api":"./lib/drpy2.min.js","ext":"./js/aiqiyi.js"},
        {"key":"优酷","name":"👑优酷(官)","type":3,"api":"./lib/drpy2.min.js","ext":"./js/youku.js"},
        {"key":"芒果","name":"🥭芒果(官)","type":3,"api":"./lib/drpy2.min.js","ext":"./js/mangguo.js"},
        {"key":"搜狗","name":"🐼搜狗(官)","type":3,"api":"./lib/drpy2.min.js","ext":"./js/caigou.js"},
        
        
    {
      "key": "drpy_js_腾云驾雾",
      "name": "腾讯（备）",
      "type": 3,
      "api": "https://fastly.jsdelivr.net/gh/hjdhnx/dr_py@main/libs/drpy2.min.js",
      "searchable": 1,
      "quickSearch": 1,
      "filterable": 0,
      "ext": "https://fastly.jsdelivr.net/gh/hjdhnx/dr_py@main/js/腾云驾雾.js"
    },
    {
      "key": "drpy_js_奇珍异兽",
      "name": "爱奇艺（备）",
      "type": 3,
      "api": "https://fastly.jsdelivr.net/gh/hjdhnx/dr_py@main/libs/drpy2.min.js",
      "searchable": 1,
      "quickSearch": 1,
      "filterable": 0,
      "ext": "https://fastly.jsdelivr.net/gh/hjdhnx/dr_py@main/js/奇珍异兽.js"
    },
    {
      "key": "drpy_js_优酷",
      "name": "优酷（备）",
      "type": 3,
      "api": "https://fastly.jsdelivr.net/gh/hjdhnx/dr_py@main/libs/drpy2.min.js",
      "searchable": 1,
      "quickSearch": 1,
      "filterable": 0,
      "ext": "https://fastly.jsdelivr.net/gh/hjdhnx/dr_py@main/js/优酷.js"
    },
    {
      "key": "drpy_js_百忙无果",
      "name": "芒果（备）",
      "type": 3,
      "api": "https://fastly.jsdelivr.net/gh/hjdhnx/dr_py@main/libs/drpy2.min.js",
      "searchable": 1,
      "quickSearch": 1,
      "filterable": 0,
      "ext": "https://fastly.jsdelivr.net/gh/hjdhnx/dr_py@main/js/百忙无果.js"
    },
    
    {
      "key": "drpy_js_搜狐",
      "name": "搜狐（备）",
      "type": 3,
      "api": "https://fastly.jsdelivr.net/gh/hjdhnx/dr_py@main/libs/drpy2.min.js",
      "searchable": 1,
      "quickSearch": 1,
      "filterable": 0,
      "ext": "https://fastly.jsdelivr.net/gh/hjdhnx/dr_py@main/js/菜狗.js"
    }, 
     {
      "key": "drpy_js_网易",
      "name": "网易公版影像",
      "type": 3,
      "api": "https://fastly.jsdelivr.net/gh/hjdhnx/dr_py@main/libs/drpy2.min.js",
      "searchable": 1,
      "quickSearch": 1,
      "filterable": 0,
      "ext": "https://fastly.jsdelivr.net/gh/hjdhnx/dr_py@main/js/网易公版影像.js"
    },    
               
        

        {"key":"csp_LocalFile","name":"💻本地视频","type":3,"api":"csp_LocalFile","searchable":0,"quickSearch":0,"filterable":0,"type_flag":0},

        {"key":"360_spider","name":"🐞360影视","type":3,"api":"csp_SP360","filterable":1,"quickSearch":1,"searchable":1},
        {"key":"csp_Kuaikan","name":"💡快看影视","type":3,"api":"csp_Kuaikan","searchable":1,"quickSearch":1,"filterable":1},
        {"key":"csp_Czsapp","name":"🐞厂长资源","type":3,"api":"csp_Czsapp","playerType":2,"searchable":1,"quickSearch":1,"filterable":1,"ext":"https://www.czzy03.com"},
        {"key":"csp_Bdys","name":"🐞哔嘀影视","type":3,"api":"csp_Bdys","searchable":1,"quickSearch":1,"filterable":1},
        {"key":"csp_Ddys","name":"🐞低端影视","type":3,"api":"csp_Ddys","searchable":1,"quickSearch":1,"filterable":1},
        {"key":"csp_Kunyu77","name":"🐞77影视","type":3,"api":"csp_Kunyu77","searchable":1,"quickSearch":1,"filterable":1},
        {"key":"csp_LiteApple","name": "🍎小苹果","type": 3,"api": "csp_LiteApple","playerType":1,"searchable": 1,"quickSearch": 1,"filterable": 1},
        {"key": "spider_Yj1211","name": "📡JustLive","type": 3,"api": "csp_Yj1211","playerType":1,"searchable": 1,"quickSearch": 1,"filterable": 1},

        {"key":"csp_Bili","name":"🐞哔哩综合","type": 3,"api": "csp_Bili","searchable": 1,"quickSearch": 1,"filterable": 1,"ext":"./biliext/Bili.json"},
        {"key":"csp_Bili幼儿","name":"🐞哔哩幼儿","type":3,"api":"csp_Bili","searchable":0,"quickSearch":0,"filterable":1,"ext":"./biliext/幼儿乐园.json"},
        {"key":"csp_Bili少儿","name":"🐞哔哩少儿","type": 3,"api": "csp_Bili","searchable": 0,"quickSearch": 0,"filterable": 1,"ext":"./biliext/少儿教育.json"},
        {"key":"csp_Bili小学","name":"🐞哔哩小学","type": 3,"api": "csp_Bili","searchable": 0,"quickSearch": 0,"filterable": 1,"ext":"./biliext/小学课堂.json"},
        {"key":"csp_Bili初中","name":"🐞哔哩初中","type": 3,"api": "csp_Bili","searchable": 0,"quickSearch": 0,"filterable": 1,"ext":"./biliext/初中课堂.json"},
        {"key":"csp_Bili高中","name":"🐞哔哩高中","type": 3,"api": "csp_Bili","searchable": 0,"quickSearch": 0,"filterable": 1,"ext":"./biliext/高中课堂.json"},
        {"key":"JS哔哩直播","name":"哔哩直播[js]","type":3,"api":"./drpy_js/libs/drpy2.min.js","searchable": 0,"quickSearch": 0,"filterable": 0,"ext":"./drpy_js/js/哔哩直播.js"},
        
        {"key": "csp_XYQHiker_兔小贝","name":"兔小贝(XYQH)","type":3,"api":"csp_XYQHiker","searchable":1,"quickSearch":1,"filterable":1,"ext":"./XYQHiker/兔小贝.json"},
        {"key": "csp_XYQHiker_兔小贝2","name":"兔小贝2(XYQH)","type":3,"api":"csp_XYQHiker","searchable":1,"quickSearch":1,"filterable":1,"ext":"./XYQHiker/兔小贝2.json"},
        {"key": "csp_XYQHiker_播视童趣","name":"播视童趣(XYQH)","type":3,"api":"csp_XYQHiker","searchable":1,"quickSearch":1,"filterable":1,"ext":"./XYQHiker/播视童趣.json"},
        {"key": "csp_XYQHiker_有声小说吧","name":"有声小说吧(XYQH)","type":3,"api":"csp_XYQHiker","searchable":1,"quickSearch":1,"filterable":1,"ext":"./XYQHiker/有声小说吧.json"},
        {"key": "csp_XYQHiker_DJ呦呦音乐网","name":"🎧DJ呦呦音乐网(XYQH)","type":3,"api":"csp_XYQHiker","searchable":1,"quickSearch":1,"filterable":1,"ext":"./XYQHiker/DJ呦呦音乐网.json"},
        {"key": "csp_XYQHiker_MV263","name":"MV263(XYQH)","type":3,"api":"csp_XYQHiker","searchable":0,"quickSearch":0,"filterable":1,"ext":"./XYQHiker/MV263.json"},
        {"key": "csp_XYQHiker_酷奇MV","name":"酷奇MV(XYQH)","type":3,"api":"csp_XYQHiker","searchable":0,"quickSearch":0,"filterable":1,"ext":"./XYQHiker/酷奇MV.json"},

        {"key": "csp_XYQHiker_量子资源网","name":"量子资源网(HD2)","type":3,"api":"csp_XYQHiker","searchable":1,"quickSearch":1,"filterable":1,"ext":"./XYQHiker/量子资源网.json"},
        {"key": "csp_XYQHiker_非凡资源网","name":"非凡资源网(HD2)","type":3,"api":"csp_XYQHiker","searchable":1,"quickSearch":1,"filterable":1,"ext":"./XYQHiker/非凡资源网.json"},

        
        
        
        {"key":"Ikun资源","name":"Ikun资源(切片)","type":0,"api":"https://ikunzyapi.com/api.php/provide/vod/at/xml/","searchable":1,"quickSearch":1}
        
        
    ],

    "parses":
    
    [
        
        {"name":"Web聚合","type":3,"url":"Web"},
        {"name":"-虾米-","type":0,"url":"https://jx.xmflv.com/?url="},
        {"name":"-盘古-","type":0,"url":"https://www.pangujiexi.cc/jiexi.php?url=","ext":{"flag":["qq","腾讯","qiyi","爱奇艺","奇艺","youku","优酷","mgtv","芒果","letv","乐视","pptv","PPTV","sohu","bilibili","哔哩哔哩","哔哩"]}},
        {"name":"-BBKDJ-","type":0,"url":"https://jx.yparse.com/index.php?url="},
        {"name":"-777-","type":0,"url":"https://jx.777jiexi.com/player/?url="},
        {"name":"-咸鱼-","type":0,"url":"https://jx.xyflv.com/?url="},
        {"name":"-全看-","type":0,"url":"https://jx.quankan.app/?url="}
        
    ],

    


    "flags": [
        "youku",
        "qq",
        "iqiyi",
        "qiyi",
        "letv",
        "sohu",
        "tudou",
        "pptv",
        "mgtv",
        "wasu",
        "bilibili",
        "renrenmi"
    ],
    "rules":[
        {
        "host":"www.iesdouyin.com",
        "rule":["playwm/?video_id="]
        },
        {
        "host":"v.douyin.com",
        "rule":["playwm/?video_id="]
        }
    ],
    "ijk": [
        {
            "group": "软解码",
            "options": [
                {
                    "category": 4,
                    "name": "opensles",
                    "value": "0"
                },
                {
                    "category": 4,
                    "name": "overlay-format",
                    "value": "842225234"
                },
                {
                    "category": 4,
                    "name": "framedrop",
                    "value": "1"
                },
                {
                    "category": 4,
                    "name": "soundtouch",
                    "value": "1"
                },
                {
                    "category": 4,
                    "name": "start-on-prepared",
                    "value": "1"
                },
                {
                    "category": 1,
                    "name": "http-detect-range-support",
                    "value": "0"
                },
                {
                    "category": 1,
                    "name": "fflags",
                    "value": "fastseek"
                },
                {
                    "category": 2,
                    "name": "skip_loop_filter",
                    "value": "48"
                },
                {
                    "category": 4,
                    "name": "reconnect",
                    "value": "1"
                },
                {
                    "category": 4,
                    "name": "enable-accurate-seek",
                    "value": "0"
                },
                {
                    "category": 4,
                    "name": "mediacodec",
                    "value": "0"
                },
                {
                    "category": 4,
                    "name": "mediacodec-auto-rotate",
                    "value": "0"
                },
                {
                    "category": 4,
                    "name": "mediacodec-handle-resolution-change",
                    "value": "0"
                },
                {
                    "category": 4,
                    "name": "mediacodec-hevc",
                    "value": "0"
                },
                {
                    "category": 1,
                    "name": "dns_cache_timeout",
                    "value": "600000000"
                }
            ]
        },
        {
            "group": "硬解码",
            "options": [
                {
                    "category": 4,
                    "name": "opensles",
                    "value": "0"
                },
                {
                    "category": 4,
                    "name": "overlay-format",
                    "value": "842225234"
                },
                {
                    "category": 4,
                    "name": "framedrop",
                    "value": "1"
                },
                {
                    "category": 4,
                    "name": "soundtouch",
                    "value": "1"
                },
                {
                    "category": 4,
                    "name": "start-on-prepared",
                    "value": "1"
                },
                {
                    "category": 1,
                    "name": "http-detect-range-support",
                    "value": "0"
                },
                {
                    "category": 1,
                    "name": "fflags",
                    "value": "fastseek"
                },
                {
                    "category": 2,
                    "name": "skip_loop_filter",
                    "value": "48"
                },
                {
                    "category": 4,
                    "name": "reconnect",
                    "value": "1"
                },
                {
                    "category": 4,
                    "name": "enable-accurate-seek",
                    "value": "0"
                },
                {
                    "category": 4,
                    "name": "mediacodec",
                    "value": "1"
                },
                {
                    "category": 4,
                    "name": "mediacodec-auto-rotate",
                    "value": "1"
                },
                {
                    "category": 4,
                    "name": "mediacodec-handle-resolution-change",
                    "value": "1"
                },
                {
                    "category": 4,
                    "name": "mediacodec-hevc",
                    "value": "1"
                },
                {
                    "category": 1,
                    "name": "dns_cache_timeout",
                    "value": "600000000"
                }
            ]
        }
    ],
    "ads": [
        "mimg.0c1q0l.cn",
        "www.googletagmanager.com",
        "www.google-analytics.com",
        "mc.usihnbcq.cn",
        "mg.g1mm3d.cn",
        "mscs.svaeuzh.cn",
        "cnzz.hhttm.top",
        "tp.vinuxhome.com",
        "cnzz.mmstat.com",
        "www.baihuillq.com",
        "s23.cnzz.com",
        "z3.cnzz.com",
        "c.cnzz.com",
        "stj.v1vo.top",
        "z12.cnzz.com",
        "img.mosflower.cn",
        "tips.gamevvip.com",
        "ehwe.yhdtns.com",
        "xdn.cqqc3.com",
        "www.jixunkyy.cn",
        "sp.chemacid.cn",
        "hm.baidu.com",
        "s9.cnzz.com",
        "z6.cnzz.com",
        "um.cavuc.com",
        "mav.mavuz.com",
        "wofwk.aoidf3.com",
        "z5.cnzz.com",
        "xc.hubeijieshikj.cn",
        "tj.tianwenhu.com",
        "xg.gars57.cn",
        "k.jinxiuzhilv.com",
        "cdn.bootcss.com",
        "ppl.xunzhuo123.com",
        "xomk.jiangjunmh.top",
        "img.xunzhuo123.com",
        "z1.cnzz.com",
        "s13.cnzz.com",
        "xg.huataisangao.cn",
        "z7.cnzz.com",
        "xg.huataisangao.cn",
        "z2.cnzz.com",
        "s96.cnzz.com",
        "q11.cnzz.com",
        "thy.dacedsfa.cn",
        "xg.whsbpw.cn",
        "s19.cnzz.com",
        "z8.cnzz.com",
        "s4.cnzz.com",
        "f5w.as12df.top",
        "ae01.alicdn.com",
        "www.92424.cn",
        "k.wudejia.com",
        "vivovip.mmszxc.top",
        "qiu.xixiqiu.com",
        "cdnjs.hnfenxun.com",
        "cms.qdwght.com",
        "api.htpan.net"
    ]
}
